…
## Exemplo

Workflow básico de funcionamento do pacote é dado através da raspagem da
api do site <https://formosodoaraguaia.megasofttransparencia.com.br/>,
onde nos conectamos a api do site e fazemos todas as requisições pelo
ambiente do R.

Para executar a raspagem criamos 2 funções, a primeira que pega as
informações dos empenhos, e a segunda que pega o detalhamento dos
empenhos. A execução do pacote é bem simples, primeiro é executada a
função pega_empenhos()

``` r
code.sample.clear::pega_empenhos()
#> # A tibble: 11,004 × 11
#>    codigo numeroDoTcm data       nomeDoFornecedor         classificacaoOrcamen…¹
#>     <int>       <int> <chr>      <chr>                    <chr>                 
#>  1  17219   202317219 26/05/2023 L.P. SIQUEIRA            05.13.08.244.10316.2.…
#>  2  17235   202317235 25/05/2023 ASSOC. APOIO CENTRO M.E… 08.16.12.361.10323.2.…
#>  3  17246   202317246 25/05/2023 P R COELHO ALIMENTOS LT… 04.12.10.301.10315.2.…
#>  4  17236   202317236 25/05/2023 ASSOC.APOIO A ESC.M. SI… 08.16.12.361.10323.2.…
#>  5  17231   202317231 25/05/2023 SECRETARIA DA FAZENDA    03.09.15.451.10312.2.…
#>  6  17243   202317243 25/05/2023 ASSOC. APOIO A ESC.N.PR… 08.16.12.361.10323.2.…
#>  7  17232   202317232 25/05/2023 ASSOC.APOIO A ESC.MUNIC… 08.16.12.361.10323.2.…
#>  8  17233   202317233 25/05/2023 ASSOC.APOIO A ESC.MUNIC… 08.16.12.361.10323.2.…
#>  9  17234   202317234 25/05/2023 ASSOC. APOIO CENTRO M.E… 08.16.12.361.10323.2.…
#> 10  17241   202317241 25/05/2023 ASSOC.APOIO A ESC.M.HER… 08.16.12.361.10323.2.…
#> # ℹ 10,994 more rows
#> # ℹ abbreviated name: ¹​classificacaoOrcamentaria
#> # ℹ 6 more variables: valorDoEmpenho <dbl>, valorDaAnulacaoDoEmpenho <dbl>,
#> #   valorDaLiquidacao <dbl>, valorDaAnulacaoDaLiquidacao <dbl>,
#> #   valorDoPagamento <dbl>, valorAnulacaoDoPagamento <dbl>
```


Também disponibilizamos os dados no pacote em formato .rds que pode ser
acessado através do código

``` r
code.sample.clear::df_empenhos
#> # A tibble: 11,004 × 11
#>    codigo numeroDoTcm data       nomeDoFornecedor         classificacaoOrcamen…¹
#>     <int>       <int> <chr>      <chr>                    <chr>                 
#>  1  17219   202317219 26/05/2023 L.P. SIQUEIRA            05.13.08.244.10316.2.…
#>  2  17235   202317235 25/05/2023 ASSOC. APOIO CENTRO M.E… 08.16.12.361.10323.2.…
#>  3  17246   202317246 25/05/2023 P R COELHO ALIMENTOS LT… 04.12.10.301.10315.2.…
#>  4  17236   202317236 25/05/2023 ASSOC.APOIO A ESC.M. SI… 08.16.12.361.10323.2.…
#>  5  17231   202317231 25/05/2023 SECRETARIA DA FAZENDA    03.09.15.451.10312.2.…
#>  6  17243   202317243 25/05/2023 ASSOC. APOIO A ESC.N.PR… 08.16.12.361.10323.2.…
#>  7  17232   202317232 25/05/2023 ASSOC.APOIO A ESC.MUNIC… 08.16.12.361.10323.2.…
#>  8  17233   202317233 25/05/2023 ASSOC.APOIO A ESC.MUNIC… 08.16.12.361.10323.2.…
#>  9  17234   202317234 25/05/2023 ASSOC. APOIO CENTRO M.E… 08.16.12.361.10323.2.…
#> 10  17241   202317241 25/05/2023 ASSOC.APOIO A ESC.M.HER… 08.16.12.361.10323.2.…
#> # ℹ 10,994 more rows
#> # ℹ abbreviated name: ¹​classificacaoOrcamentaria
#> # ℹ 6 more variables: valorDoEmpenho <dbl>, valorDaAnulacaoDoEmpenho <dbl>,
#> #   valorDaLiquidacao <dbl>, valorDaAnulacaoDaLiquidacao <dbl>,
#> #   valorDoPagamento <dbl>, valorAnulacaoDoPagamento <dbl>
```
…
